<svg width="1.2em" height="1.5em" aria-hidden="true" role="img" version="1.1" viewBox="0 0 800 800" xmlns="http://www.w3.org/2000/svg">
    <path d="m768 0h-736c-17.7 0-32 14.3-32 32v736c0 17.7 14.3 32 32 32h736c17.7 0 32-14.3 32-32v-736c0-17.7-14.3-32-32-32zm-366.9 406.1-192 161c-5.2 4.4-13.1 0.7-13.1-6.1v-62.7c0-2.3 1.1-4.6 2.9-6.1l109.8-92.2-109.8-92.2a7.63 7.63 0 0 1-2.9-6.1v-62.7c0-6.8 7.9-10.5 13.1-6.1l192 160.9c3.9 3.2 3.9 9.1 0 12.3zm202.9 154.9c0 4.4-3.4 8-7.5 8h-185c-4.1 0-7.5-3.6-7.5-8v-48c0-4.4 3.4-8 7.5-8h185c4.1 0 7.5 3.6 7.5 8z" 
        fill="#009c82">
    </path>
</svg>